<svg width="48" height="48" viewBox="0 0 48 48" fill="none" xmlns="http://www.w3.org/2000/svg">
<rect x="0.5" y="0.5" width="47" height="47" rx="7.5" stroke="#9F0E0F"/>
<path d="M24.8327 24.8307V25.3307V31.9974C24.8327 32.2184 24.7449 32.4304 24.5886 32.5867C24.4323 32.7429 24.2204 32.8307 23.9993 32.8307C23.7783 32.8307 23.5664 32.7429 23.4101 32.5867C23.2538 32.4304 23.166 32.2184 23.166 31.9974V25.3307V24.8307H22.666H15.9993C15.7783 24.8307 15.5664 24.7429 15.4101 24.5867C15.2538 24.4304 15.166 24.2184 15.166 23.9974C15.166 23.7764 15.2538 23.5644 15.4101 23.4081C15.5664 23.2519 15.7783 23.1641 15.9993 23.1641H22.666H23.166V22.6641V15.9974C23.166 15.7764 23.2538 15.5644 23.4101 15.4081C23.5664 15.2519 23.7783 15.1641 23.9993 15.1641C24.2204 15.1641 24.4323 15.2519 24.5886 15.4081C24.7449 15.5644 24.8327 15.7764 24.8327 15.9974V22.6641V23.1641H25.3327H31.9993C32.2204 23.1641 32.4323 23.2519 32.5886 23.4081C32.7449 23.5644 32.8327 23.7764 32.8327 23.9974C32.8327 24.2184 32.7449 24.4304 32.5886 24.5867C32.4323 24.7429 32.2204 24.8307 31.9993 24.8307H25.3327H24.8327Z" fill="#AF0404" stroke="#AF0404"/>
</svg>
