<svg width="33" height="33" viewBox="0 0 33 33" fill="none" xmlns="http://www.w3.org/2000/svg">
<g id="heroicons:user-group-20-solid">
<path id="Vector" d="M16.0438 14.7379C17.3168 14.7341 18.5362 14.2247 19.4336 13.3218C20.331 12.4189 20.8331 11.1964 20.8292 9.9234C20.8253 8.65036 20.3159 7.431 19.413 6.53356C18.5101 5.63612 17.2877 5.13411 16.0147 5.13797C14.7416 5.14183 13.5223 5.65124 12.6248 6.55414C11.7274 7.45704 11.2254 8.67947 11.2292 9.9525C11.2331 11.2255 11.7425 12.4449 12.6454 13.3423C13.5483 14.2398 14.7707 14.7418 16.0438 14.7379ZM9.63895 13.1573C9.64152 14.006 9.30685 14.821 8.70856 15.4229C8.11026 16.0248 7.29736 16.3645 6.44867 16.367C5.59998 16.3696 4.78503 16.0349 4.18309 15.4366C3.58116 14.8383 3.24155 14.0254 3.23898 13.1767C3.23641 12.3281 3.57108 11.5131 4.16937 10.9112C4.76767 10.3092 5.58057 9.96963 6.42926 9.96706C7.27795 9.96448 8.0929 10.2992 8.69483 10.8975C9.29677 11.4957 9.63638 12.3087 9.63895 13.1573ZM2.45852 24.9008C2.18491 24.7464 1.9796 24.4944 1.88358 24.1953C1.5989 23.2831 1.59299 22.3067 1.86659 21.3911C2.14019 20.4755 2.68086 19.6624 3.41935 19.0559C4.15785 18.4494 5.06056 18.0772 6.01188 17.9869C6.96321 17.8965 7.91985 18.0922 8.75929 18.5488C7.04224 20.2465 5.97112 22.4899 5.73051 24.8924C5.69479 25.2478 5.71026 25.5997 5.77368 25.9387C4.60564 25.8413 3.47358 25.4868 2.45852 24.9008ZM26.3816 25.8746C27.5489 25.7706 28.6788 25.4099 29.6904 24.8182C29.9625 24.6618 30.1656 24.4087 30.2595 24.1093C30.539 23.1952 30.5394 22.2186 30.2604 21.3043C29.9815 20.3901 29.4359 19.58 28.6936 18.9778C27.9514 18.3755 27.0462 18.0086 26.0942 17.924C25.1421 17.8395 24.1864 18.0411 23.3496 18.503C25.0784 20.1901 26.1643 22.4277 26.42 24.8297C26.4567 25.1786 26.4438 25.531 26.3816 25.8762L26.3816 25.8746ZM28.8389 13.0991C28.8414 13.9478 28.5068 14.7628 27.9085 15.3647C27.3102 15.9666 26.4973 16.3062 25.6486 16.3088C24.7999 16.3114 23.9849 15.9767 23.383 15.3784C22.7811 14.7801 22.4415 13.9672 22.4389 13.1185C22.4363 12.2698 22.771 11.4549 23.3693 10.853C23.9676 10.251 24.7805 9.91142 25.6292 9.90884C26.4779 9.90627 27.2928 10.2409 27.8947 10.8392C28.4967 11.4375 28.8363 12.2504 28.8389 13.0991ZM8.56509 26.2647C8.40686 26.1238 8.28399 25.9477 8.2064 25.7506C8.12881 25.5535 8.09868 25.3409 8.11844 25.13C8.31599 23.1606 9.23661 21.3343 10.7024 20.0041C12.1681 18.674 14.0749 17.9345 16.0542 17.9285C18.0336 17.9225 19.9448 18.6504 21.4186 19.9717C22.8924 21.2929 23.8241 23.1135 24.0336 25.0818C24.0547 25.2925 24.026 25.5054 23.9496 25.703C23.8732 25.9005 23.7513 26.0774 23.5938 26.2191C21.5422 28.0924 18.8656 29.1332 16.0874 29.1379C13.3098 29.1498 10.6275 28.1253 8.56509 26.2647Z" fill="white"/>
</g>
</svg>
