<svg width="25" height="25" viewBox="0 0 25 25" fill="none" xmlns="http://www.w3.org/2000/svg">
<g id="ic:twotone-more-horiz">
<path id="Vector" d="M6.95751 10.0545C5.85752 10.0578 4.96025 10.9605 4.96358 12.0605C4.96692 13.1605 5.86964 14.0578 6.96964 14.0545C8.06963 14.0511 8.9669 13.1484 8.96357 12.0484C8.96023 10.9484 8.05751 10.0511 6.95751 10.0545ZM18.9575 10.0181C17.8575 10.0214 16.9602 10.9242 16.9635 12.0242C16.9669 13.1241 17.8696 14.0214 18.9696 14.0181C20.0696 14.0147 20.9668 13.112 20.9635 12.012C20.9602 10.912 20.0575 10.0148 18.9575 10.0181Z" fill="black"/>
<path id="Vector_2" opacity="0.6" d="M12.9573 10.0369C11.8573 10.0402 10.96 10.943 10.9633 12.043C10.9667 13.143 11.8694 14.0402 12.9694 14.0369C14.0694 14.0336 14.9667 13.1308 14.9633 12.0308C14.96 10.9308 14.0573 10.0336 12.9573 10.0369Z" fill="#333333"/>
</g>
</svg>
