<svg width="5" height="5" viewBox="0 0 5 5" fill="none" xmlns="http://www.w3.org/2000/svg">
<path d="M0.619141 2.42578C0.619141 1.91602 0.701172 1.50879 0.865234 1.2041C1.0293 0.893555 1.25195 0.667969 1.5332 0.527344C1.82031 0.386719 2.14258 0.316406 2.5 0.316406C2.85742 0.316406 3.17676 0.386719 3.45801 0.527344C3.74512 0.667969 3.9707 0.893555 4.13477 1.2041C4.29883 1.51465 4.38086 1.92188 4.38086 2.42578C4.38086 2.91797 4.29883 3.32227 4.13477 3.63867C3.9707 3.94922 3.74512 4.17773 3.45801 4.32422C3.17676 4.4707 2.85742 4.54395 2.5 4.54395C2.14258 4.54395 1.82031 4.4707 1.5332 4.32422C1.25195 4.17773 1.0293 3.94922 0.865234 3.63867C0.701172 3.32812 0.619141 2.92383 0.619141 2.42578Z" fill="#6C757D"/>
</svg>
