<svg width="24" height="25" viewBox="0 0 24 25" fill="none" xmlns="http://www.w3.org/2000/svg">
<path fill-rule="evenodd" clip-rule="evenodd" d="M13.0001 3.5C13.0001 3.23478 12.8947 2.98043 12.7072 2.79289C12.5197 2.60536 12.2653 2.5 12.0001 2.5C11.7349 2.5 11.4805 2.60536 11.293 2.79289C11.1055 2.98043 11.0001 3.23478 11.0001 3.5V4.25H10.4431C9.37113 4.24993 8.33943 4.65839 7.55803 5.39224C6.77662 6.12608 6.30426 7.13014 6.2371 8.2L6.0161 11.734C5.93067 13.0812 5.47835 14.3794 4.7081 15.488C4.54874 15.7171 4.45136 15.9835 4.42545 16.2613C4.39953 16.5392 4.44596 16.819 4.56022 17.0736C4.67447 17.3281 4.85267 17.5488 5.07747 17.7142C5.30227 17.8795 5.56604 17.9838 5.8431 18.017L9.2501 18.425V19.5C9.2501 20.2293 9.53983 20.9288 10.0556 21.4445C10.5713 21.9603 11.2708 22.25 12.0001 22.25C12.7294 22.25 13.4289 21.9603 13.9446 21.4445C14.4604 20.9288 14.7501 20.2293 14.7501 19.5V18.425L18.1571 18.016C18.434 17.9827 18.6976 17.8784 18.9223 17.7131C19.1469 17.5478 19.325 17.3273 19.4393 17.0729C19.5535 16.8184 19.6 16.5388 19.5742 16.2611C19.5484 15.9834 19.4512 15.7171 19.2921 15.488C18.5219 14.3794 18.0695 13.0812 17.9841 11.734L17.7631 8.201C17.6962 7.13096 17.2239 6.12665 16.4425 5.3926C15.6611 4.65855 14.6292 4.24995 13.5571 4.25H13.0001V3.5ZM10.4431 5.75C9.75268 5.74992 9.08817 6.01297 8.58488 6.48561C8.08159 6.95825 7.77735 7.60493 7.7341 8.294L7.5141 11.828C7.41129 13.4487 6.86697 15.0105 5.9401 16.344C5.92857 16.3606 5.92152 16.3798 5.91964 16.3999C5.91776 16.42 5.9211 16.4403 5.92936 16.4587C5.93761 16.4771 5.95049 16.4931 5.96674 16.505C5.98299 16.517 6.00206 16.5246 6.0221 16.527L9.7591 16.976C11.2481 17.154 12.7521 17.154 14.2411 16.976L17.9781 16.527C17.9981 16.5246 18.0172 16.517 18.0335 16.505C18.0497 16.4931 18.0626 16.4771 18.0708 16.4587C18.0791 16.4403 18.0824 16.42 18.0806 16.3999C18.0787 16.3798 18.0716 16.3606 18.0601 16.344C17.1336 15.0104 16.5896 13.4486 16.4871 11.828L16.2661 8.294C16.2229 7.60493 15.9186 6.95825 15.4153 6.48561C14.912 6.01297 14.2475 5.74992 13.5571 5.75H10.4431ZM12.0001 20.75C11.3101 20.75 10.7501 20.19 10.7501 19.5V18.75H13.2501V19.5C13.2501 20.19 12.6901 20.75 12.0001 20.75Z" fill="#9F0E0F"/>
</svg>
