<svg width="20" height="21" viewBox="0 0 20 21" fill="none" xmlns="http://www.w3.org/2000/svg">
<path d="M13.3333 2.11914H6.66667C6.22464 2.11914 5.80072 2.29474 5.48816 2.6073C5.17559 2.91986 5 3.34378 5 3.78581V17.1191C5 17.5612 5.17559 17.9851 5.48816 18.2977C5.80072 18.6102 6.22464 18.7858 6.66667 18.7858H13.3333C13.7754 18.7858 14.1993 18.6102 14.5118 18.2977C14.8244 17.9851 15 17.5612 15 17.1191V3.78581C15 3.34378 14.8244 2.91986 14.5118 2.6073C14.1993 2.29474 13.7754 2.11914 13.3333 2.11914ZM10.8333 17.9525H9.16667V17.1191H10.8333V17.9525ZM13.3333 16.2858H6.66667V4.61914H13.3333V16.2858Z" fill="#696F79"/>
</svg>
